<?xml version="1.0" encoding="UTF-8"?>
<session version="1.0">
<refactoring comment="Delete resource &apos;MyEbay&apos;" deleteContents="false" description="Delete resource &apos;MyEbay&apos;" element1="/MyEbay" flags="7" id="org.eclipse.ltk.core.refactoring.delete.resources" resources="1" stamp="1601711953421"/>
</session>